{
    "search_metadata": {
        "count": 100, 
        "completed_in": 0.023, 
        "max_id_str": "510790137727688704", 
        "since_id_str": "0", 
        "refresh_url": "?since_id=510790137727688704&q=moniquecool&include_entities=1", 
        "since_id": 0, 
        "query": "moniquecool", 
        "max_id": 510790137727688704
    }, 
    "statuses": [
        {
            "contributors": null, 
            "truncated": false, 
            "text": "RT @JasonLastname: Back before it was sent through computers, it was just called bola.", 
            "in_reply_to_status_id": null, 
            "id": 510790137727688704, 
            "favorite_count": 0, 
            "source": "<a href=\"http://twitter.com\" rel=\"nofollow\">Twitter Web Client</a>", 
            "retweeted": false, 
            "coordinates": null, 
            "entities": {
                "symbols": [], 
                "user_mentions": [
                    {
                        "id": 630728313, 
                        "indices": [
                            3, 
                            17
                        ], 
                        "id_str": "630728313", 
                        "screen_name": "JasonLastname", 
                        "name": "Jason Lastname"
                    }
                ], 
                "hashtags": [], 
                "urls": []
            }, 
            "in_reply_to_screen_name": null, 
            "in_reply_to_user_id": null, 
            "retweet_count": 40, 
            "id_str": "510790137727688704", 
            "favorited": false, 
            "retweeted_status": {
                "contributors": null, 
                "truncated": false, 
                "text": "Back before it was sent through computers, it was just called bola.", 
                "in_reply_to_status_id": null, 
                "id": 497953827455500288, 
                "favorite_count": 90, 
                "source": "<a href=\"http://twitter.com/download/iphone\" rel=\"nofollow\">Twitter for iPhone</a>", 
                "retweeted": false, 
                "coordinates": null, 
                "entities": {
                    "symbols": [], 
                    "user_mentions": [], 
                    "hashtags": [], 
                    "urls": []
                }, 
                "in_reply_to_screen_name": null, 
                "in_reply_to_user_id": null, 
                "retweet_count": 40, 
                "id_str": "497953827455500288", 
                "favorited": false, 
                "user": {
                    "follow_request_sent": false, 
                    "profile_use_background_image": false, 
                    "default_profile_image": false, 
                    "id": 630728313, 
                    "profile_background_image_url_https": "https://pbs.twimg.com/profile_background_images/378800000160786827/e-LQB7il.jpeg", 
                    "verified": false, 
                    "profile_text_color": "333333", 
                    "profile_image_url_https": "https://pbs.twimg.com/profile_images/482228559071559680/uYA-dTwa_normal.jpeg", 
                    "profile_sidebar_fill_color": "DDEEF6", 
                    "entities": {
                        "url": {
                            "urls": [
                                {
                                    "url": "http://t.co/ZpSYDFNuMj", 
                                    "indices": [
                                        0, 
                                        22
                                    ], 
                                    "expanded_url": "http://favstar.fm/users/JasonLastname", 
                                    "display_url": "favstar.fm/users/JasonLas…"
                                }
                            ]
                        }, 
                        "description": {
                            "urls": [
                                {
                                    "url": "http://t.co/2jkbDbcUzj", 
                                    "indices": [
                                        32, 
                                        54
                                    ], 
                                    "expanded_url": "http://society6.com/804jason/prints", 
                                    "display_url": "society6.com/804jason/prints"
                                }
                            ]
                        }
                    }, 
                    "followers_count": 15071, 
                    "profile_sidebar_border_color": "000000", 
                    "id_str": "630728313", 
                    "profile_background_color": "FFFFFF", 
                    "listed_count": 550, 
                    "is_translation_enabled": false, 
                    "utc_offset": -10800, 
                    "statuses_count": 5545, 
                    "description": "stop laughing, it's not funny • http://t.co/2jkbDbcUzj • RVA", 
                    "friends_count": 966, 
                    "location": "", 
                    "profile_link_color": "0084B4", 
                    "profile_image_url": "http://pbs.twimg.com/profile_images/482228559071559680/uYA-dTwa_normal.jpeg", 
                    "following": false, 
                    "geo_enabled": false, 
                    "profile_banner_url": "https://pbs.twimg.com/profile_banners/630728313/1391008331", 
                    "profile_background_image_url": "http://pbs.twimg.com/profile_background_images/378800000160786827/e-LQB7il.jpeg", 
                    "screen_name": "JasonLastname", 
                    "lang": "en", 
                    "profile_background_tile": false, 
                    "favourites_count": 23986, 
                    "name": "Jason Lastname", 
                    "notifications": false, 
                    "url": "http://t.co/ZpSYDFNuMj", 
                    "created_at": "Mon Jul 09 00:40:11 +0000 2012", 
                    "contributors_enabled": false, 
                    "time_zone": "Atlantic Time (Canada)", 
                    "protected": false, 
                    "default_profile": false, 
                    "is_translator": false
                }, 
                "geo": null, 
                "in_reply_to_user_id_str": null, 
                "lang": "en", 
                "created_at": "Sat Aug 09 03:53:38 +0000 2014", 
                "in_reply_to_status_id_str": null, 
                "place": null, 
                "metadata": {
                    "iso_language_code": "en", 
                    "result_type": "recent"
                }
            }, 
            "user": {
                "follow_request_sent": false, 
                "profile_use_background_image": true, 
                "default_profile_image": false, 
                "id": 23765625, 
                "profile_background_image_url_https": "https://abs.twimg.com/images/themes/theme1/bg.png", 
                "verified": false, 
                "profile_text_color": "333333", 
                "profile_image_url_https": "https://pbs.twimg.com/profile_images/3063037843/0543ca257ec2abe1a17f315e0ecdbb16_normal.jpeg", 
                "profile_sidebar_fill_color": "DDEEF6", 
                "entities": {
                    "description": {
                        "urls": []
                    }
                }, 
                "followers_count": 36, 
                "profile_sidebar_border_color": "C0DEED", 
                "id_str": "23765625", 
                "profile_background_color": "C0DEED", 
                "listed_count": 0, 
                "is_translation_enabled": false, 
                "utc_offset": null, 
                "statuses_count": 96, 
                "description": "", 
                "friends_count": 54, 
                "location": "", 
                "profile_link_color": "0084B4", 
                "profile_image_url": "http://pbs.twimg.com/profile_images/3063037843/0543ca257ec2abe1a17f315e0ecdbb16_normal.jpeg", 
                "following": false, 
                "geo_enabled": false, 
                "profile_banner_url": "https://pbs.twimg.com/profile_banners/23765625/1400004580", 
                "profile_background_image_url": "http://abs.twimg.com/images/themes/theme1/bg.png", 
                "screen_name": "moniquecool", 
                "lang": "en", 
                "profile_background_tile": false, 
                "favourites_count": 6, 
                "name": "monika khandelwal", 
                "notifications": false, 
                "url": null, 
                "created_at": "Wed Mar 11 13:56:34 +0000 2009", 
                "contributors_enabled": false, 
                "time_zone": null, 
                "protected": false, 
                "default_profile": true, 
                "is_translator": false
            }, 
            "geo": null, 
            "in_reply_to_user_id_str": null, 
            "lang": "en", 
            "created_at": "Sat Sep 13 14:00:33 +0000 2014", 
            "in_reply_to_status_id_str": null, 
            "place": null, 
            "metadata": {
                "iso_language_code": "en", 
                "result_type": "recent"
            }
        }, 
        {
            "contributors": null, 
            "truncated": false, 
            "text": "RT @JasonLastname: When you're first learning jibber, but don't quite know it, you're really just speaking jibber-ish.", 
            "in_reply_to_status_id": null, 
            "id": 510669994896945153, 
            "favorite_count": 0, 
            "source": "<a href=\"http://twitter.com\" rel=\"nofollow\">Twitter Web Client</a>", 
            "retweeted": false, 
            "coordinates": null, 
            "entities": {
                "symbols": [], 
                "user_mentions": [
                    {
                        "id": 630728313, 
                        "indices": [
                            3, 
                            17
                        ], 
                        "id_str": "630728313", 
                        "screen_name": "JasonLastname", 
                        "name": "Jason Lastname"
                    }
                ], 
                "hashtags": [], 
                "urls": []
            }, 
            "in_reply_to_screen_name": null, 
            "in_reply_to_user_id": null, 
            "retweet_count": 7, 
            "id_str": "510669994896945153", 
            "favorited": false, 
            "retweeted_status": {
                "contributors": null, 
                "truncated": false, 
                "text": "When you're first learning jibber, but don't quite know it, you're really just speaking jibber-ish.", 
                "in_reply_to_status_id": null, 
                "id": 502285409389670402, 
                "favorite_count": 34, 
                "source": "<a href=\"http://twitter.com/download/iphone\" rel=\"nofollow\">Twitter for iPhone</a>", 
                "retweeted": false, 
                "coordinates": null, 
                "entities": {
                    "symbols": [], 
                    "user_mentions": [], 
                    "hashtags": [], 
                    "urls": []
                }, 
                "in_reply_to_screen_name": null, 
                "in_reply_to_user_id": null, 
                "retweet_count": 7, 
                "id_str": "502285409389670402", 
                "favorited": false, 
                "user": {
                    "follow_request_sent": false, 
                    "profile_use_background_image": false, 
                    "default_profile_image": false, 
                    "id": 630728313, 
                    "profile_background_image_url_https": "https://pbs.twimg.com/profile_background_images/378800000160786827/e-LQB7il.jpeg", 
                    "verified": false, 
                    "profile_text_color": "333333", 
                    "profile_image_url_https": "https://pbs.twimg.com/profile_images/482228559071559680/uYA-dTwa_normal.jpeg", 
                    "profile_sidebar_fill_color": "DDEEF6", 
                    "entities": {
                        "url": {
                            "urls": [
                                {
                                    "url": "http://t.co/ZpSYDFNuMj", 
                                    "indices": [
                                        0, 
                                        22
                                    ], 
                                    "expanded_url": "http://favstar.fm/users/JasonLastname", 
                                    "display_url": "favstar.fm/users/JasonLas…"
                                }
                            ]
                        }, 
                        "description": {
                            "urls": [
                                {
                                    "url": "http://t.co/2jkbDbcUzj", 
                                    "indices": [
                                        32, 
                                        54
                                    ], 
                                    "expanded_url": "http://society6.com/804jason/prints", 
                                    "display_url": "society6.com/804jason/prints"
                                }
                            ]
                        }
                    }, 
                    "followers_count": 15071, 
                    "profile_sidebar_border_color": "000000", 
                    "id_str": "630728313", 
                    "profile_background_color": "FFFFFF", 
                    "listed_count": 550, 
                    "is_translation_enabled": false, 
                    "utc_offset": -10800, 
                    "statuses_count": 5545, 
                    "description": "stop laughing, it's not funny • http://t.co/2jkbDbcUzj • RVA", 
                    "friends_count": 966, 
                    "location": "", 
                    "profile_link_color": "0084B4", 
                    "profile_image_url": "http://pbs.twimg.com/profile_images/482228559071559680/uYA-dTwa_normal.jpeg", 
                    "following": false, 
                    "geo_enabled": false, 
                    "profile_banner_url": "https://pbs.twimg.com/profile_banners/630728313/1391008331", 
                    "profile_background_image_url": "http://pbs.twimg.com/profile_background_images/378800000160786827/e-LQB7il.jpeg", 
                    "screen_name": "JasonLastname", 
                    "lang": "en", 
                    "profile_background_tile": false, 
                    "favourites_count": 23986, 
                    "name": "Jason Lastname", 
                    "notifications": false, 
                    "url": "http://t.co/ZpSYDFNuMj", 
                    "created_at": "Mon Jul 09 00:40:11 +0000 2012", 
                    "contributors_enabled": false, 
                    "time_zone": "Atlantic Time (Canada)", 
                    "protected": false, 
                    "default_profile": false, 
                    "is_translator": false
                }, 
                "geo": null, 
                "in_reply_to_user_id_str": null, 
                "lang": "en", 
                "created_at": "Thu Aug 21 02:45:48 +0000 2014", 
                "in_reply_to_status_id_str": null, 
                "place": null, 
                "metadata": {
                    "iso_language_code": "en", 
                    "result_type": "recent"
                }
            }, 
            "user": {
                "follow_request_sent": false, 
                "profile_use_background_image": true, 
                "default_profile_image": false, 
                "id": 23765625, 
                "profile_background_image_url_https": "https://abs.twimg.com/images/themes/theme1/bg.png", 
                "verified": false, 
                "profile_text_color": "333333", 
                "profile_image_url_https": "https://pbs.twimg.com/profile_images/3063037843/0543ca257ec2abe1a17f315e0ecdbb16_normal.jpeg", 
                "profile_sidebar_fill_color": "DDEEF6", 
                "entities": {
                    "description": {
                        "urls": []
                    }
                }, 
                "followers_count": 36, 
                "profile_sidebar_border_color": "C0DEED", 
                "id_str": "23765625", 
                "profile_background_color": "C0DEED", 
                "listed_count": 0, 
                "is_translation_enabled": false, 
                "utc_offset": null, 
                "statuses_count": 96, 
                "description": "", 
                "friends_count": 54, 
                "location": "", 
                "profile_link_color": "0084B4", 
                "profile_image_url": "http://pbs.twimg.com/profile_images/3063037843/0543ca257ec2abe1a17f315e0ecdbb16_normal.jpeg", 
                "following": false, 
                "geo_enabled": false, 
                "profile_banner_url": "https://pbs.twimg.com/profile_banners/23765625/1400004580", 
                "profile_background_image_url": "http://abs.twimg.com/images/themes/theme1/bg.png", 
                "screen_name": "moniquecool", 
                "lang": "en", 
                "profile_background_tile": false, 
                "favourites_count": 6, 
                "name": "monika khandelwal", 
                "notifications": false, 
                "url": null, 
                "created_at": "Wed Mar 11 13:56:34 +0000 2009", 
                "contributors_enabled": false, 
                "time_zone": null, 
                "protected": false, 
                "default_profile": true, 
                "is_translator": false
            }, 
            "geo": null, 
            "in_reply_to_user_id_str": null, 
            "lang": "en", 
            "created_at": "Sat Sep 13 06:03:09 +0000 2014", 
            "in_reply_to_status_id_str": null, 
            "place": null, 
            "metadata": {
                "iso_language_code": "en", 
                "result_type": "recent"
            }
        }, 
        {
            "contributors": null, 
            "truncated": false, 
            "text": "RT @KeetPotato: It's so cute how all the free sandwiches in the fridge at work have little names.", 
            "in_reply_to_status_id": null, 
            "id": 510668109381140480, 
            "favorite_count": 0, 
            "source": "<a href=\"http://twitter.com\" rel=\"nofollow\">Twitter Web Client</a>", 
            "retweeted": false, 
            "coordinates": null, 
            "entities": {
                "symbols": [], 
                "user_mentions": [
                    {
                        "id": 624661805, 
                        "indices": [
                            3, 
                            14
                        ], 
                        "id_str": "624661805", 
                        "screen_name": "KeetPotato", 
                        "name": "k e e t"
                    }
                ], 
                "hashtags": [], 
                "urls": []
            }, 
            "in_reply_to_screen_name": null, 
            "in_reply_to_user_id": null, 
            "retweet_count": 1746, 
            "id_str": "510668109381140480", 
            "favorited": false, 
            "retweeted_status": {
                "contributors": null, 
                "truncated": false, 
                "text": "It's so cute how all the free sandwiches in the fridge at work have little names.", 
                "in_reply_to_status_id": null, 
                "id": 317252284016914433, 
                "favorite_count": 3062, 
                "source": "<a href=\"http://twitter.com\" rel=\"nofollow\">Twitter Web Client</a>", 
                "retweeted": false, 
                "coordinates": null, 
                "entities": {
                    "symbols": [], 
                    "user_mentions": [], 
                    "hashtags": [], 
                    "urls": []
                }, 
                "in_reply_to_screen_name": null, 
                "in_reply_to_user_id": null, 
                "retweet_count": 1746, 
                "id_str": "317252284016914433", 
                "favorited": false, 
                "user": {
                    "follow_request_sent": false, 
                    "profile_use_background_image": true, 
                    "default_profile_image": false, 
                    "id": 624661805, 
                    "profile_background_image_url_https": "https://pbs.twimg.com/profile_background_images/439360093629329410/X6qgxjxk.jpeg", 
                    "verified": false, 
                    "profile_text_color": "663B12", 
                    "profile_image_url_https": "https://pbs.twimg.com/profile_images/464756948899229696/Vj_PnU2R_normal.jpeg", 
                    "profile_sidebar_fill_color": "DAECF4", 
                    "entities": {
                        "url": {
                            "urls": [
                                {
                                    "url": "http://t.co/LUXnDLUw6Z", 
                                    "indices": [
                                        0, 
                                        22
                                    ], 
                                    "expanded_url": "http://favstar.fm/users/KeetPotato", 
                                    "display_url": "favstar.fm/users/KeetPota…"
                                }
                            ]
                        }, 
                        "description": {
                            "urls": []
                        }
                    }, 
                    "followers_count": 15517, 
                    "profile_sidebar_border_color": "FFFFFF", 
                    "id_str": "624661805", 
                    "profile_background_color": "C6E2EE", 
                    "listed_count": 397, 
                    "is_translation_enabled": false, 
                    "utc_offset": 3600, 
                    "statuses_count": 8664, 
                    "description": "", 
                    "friends_count": 289, 
                    "location": "england", 
                    "profile_link_color": "292929", 
                    "profile_image_url": "http://pbs.twimg.com/profile_images/464756948899229696/Vj_PnU2R_normal.jpeg", 
                    "following": false, 
                    "geo_enabled": false, 
                    "profile_banner_url": "https://pbs.twimg.com/profile_banners/624661805/1408615701", 
                    "profile_background_image_url": "http://pbs.twimg.com/profile_background_images/439360093629329410/X6qgxjxk.jpeg", 
                    "screen_name": "KeetPotato", 
                    "lang": "en", 
                    "profile_background_tile": true, 
                    "favourites_count": 31100, 
                    "name": "k e e t", 
                    "notifications": false, 
                    "url": "http://t.co/LUXnDLUw6Z", 
                    "created_at": "Mon Jul 02 13:23:06 +0000 2012", 
                    "contributors_enabled": false, 
                    "time_zone": "London", 
                    "protected": false, 
                    "default_profile": false, 
                    "is_translator": false
                }, 
                "geo": null, 
                "in_reply_to_user_id_str": null, 
                "lang": "en", 
                "created_at": "Thu Mar 28 12:30:13 +0000 2013", 
                "in_reply_to_status_id_str": null, 
                "place": null, 
                "metadata": {
                    "iso_language_code": "en", 
                    "result_type": "recent"
                }
            }, 
            "user": {
                "follow_request_sent": false, 
                "profile_use_background_image": true, 
                "default_profile_image": false, 
                "id": 23765625, 
                "profile_background_image_url_https": "https://abs.twimg.com/images/themes/theme1/bg.png", 
                "verified": false, 
                "profile_text_color": "333333", 
                "profile_image_url_https": "https://pbs.twimg.com/profile_images/3063037843/0543ca257ec2abe1a17f315e0ecdbb16_normal.jpeg", 
                "profile_sidebar_fill_color": "DDEEF6", 
                "entities": {
                    "description": {
                        "urls": []
                    }
                }, 
                "followers_count": 36, 
                "profile_sidebar_border_color": "C0DEED", 
                "id_str": "23765625", 
                "profile_background_color": "C0DEED", 
                "listed_count": 0, 
                "is_translation_enabled": false, 
                "utc_offset": null, 
                "statuses_count": 96, 
                "description": "", 
                "friends_count": 54, 
                "location": "", 
                "profile_link_color": "0084B4", 
                "profile_image_url": "http://pbs.twimg.com/profile_images/3063037843/0543ca257ec2abe1a17f315e0ecdbb16_normal.jpeg", 
                "following": false, 
                "geo_enabled": false, 
                "profile_banner_url": "https://pbs.twimg.com/profile_banners/23765625/1400004580", 
                "profile_background_image_url": "http://abs.twimg.com/images/themes/theme1/bg.png", 
                "screen_name": "moniquecool", 
                "lang": "en", 
                "profile_background_tile": false, 
                "favourites_count": 6, 
                "name": "monika khandelwal", 
                "notifications": false, 
                "url": null, 
                "created_at": "Wed Mar 11 13:56:34 +0000 2009", 
                "contributors_enabled": false, 
                "time_zone": null, 
                "protected": false, 
                "default_profile": true, 
                "is_translator": false
            }, 
            "geo": null, 
            "in_reply_to_user_id_str": null, 
            "lang": "en", 
            "created_at": "Sat Sep 13 05:55:39 +0000 2014", 
            "in_reply_to_status_id_str": null, 
            "place": null, 
            "metadata": {
                "iso_language_code": "en", 
                "result_type": "recent"
            }
        }, 
        {
            "contributors": null, 
            "truncated": false, 
            "text": "RT @elsaPelsjas: Buying stuff online gives me a reason to live for another 5 to 7 business days.", 
            "in_reply_to_status_id": null, 
            "id": 510667745604931584, 
            "favorite_count": 0, 
            "source": "<a href=\"http://twitter.com\" rel=\"nofollow\">Twitter Web Client</a>", 
            "retweeted": false, 
            "coordinates": null, 
            "entities": {
                "symbols": [], 
                "user_mentions": [
                    {
                        "id": 215585731, 
                        "indices": [
                            3, 
                            15
                        ], 
                        "id_str": "215585731", 
                        "screen_name": "elsaPelsjas", 
                        "name": "Pelsjas"
                    }
                ], 
                "hashtags": [], 
                "urls": []
            }, 
            "in_reply_to_screen_name": null, 
            "in_reply_to_user_id": null, 
            "retweet_count": 131, 
            "id_str": "510667745604931584", 
            "favorited": false, 
            "retweeted_status": {
                "contributors": null, 
                "truncated": false, 
                "text": "Buying stuff online gives me a reason to live for another 5 to 7 business days.", 
                "in_reply_to_status_id": null, 
                "id": 264017773603221504, 
                "favorite_count": 175, 
                "source": "<a href=\"http://twitter.com\" rel=\"nofollow\">Twitter Web Client</a>", 
                "retweeted": false, 
                "coordinates": null, 
                "entities": {
                    "symbols": [], 
                    "user_mentions": [], 
                    "hashtags": [], 
                    "urls": []
                }, 
                "in_reply_to_screen_name": null, 
                "in_reply_to_user_id": null, 
                "retweet_count": 131, 
                "id_str": "264017773603221504", 
                "favorited": false, 
                "user": {
                    "follow_request_sent": false, 
                    "profile_use_background_image": true, 
                    "default_profile_image": false, 
                    "id": 215585731, 
                    "profile_background_image_url_https": "https://pbs.twimg.com/profile_background_images/511420674435346432/8S6Lvnf1.jpeg", 
                    "verified": false, 
                    "profile_text_color": "333333", 
                    "profile_image_url_https": "https://pbs.twimg.com/profile_images/465742266657554432/DqvQD9IK_normal.jpeg", 
                    "profile_sidebar_fill_color": "EFEFEF", 
                    "entities": {
                        "url": {
                            "urls": [
                                {
                                    "url": "http://t.co/bBnZyJU5uV", 
                                    "indices": [
                                        0, 
                                        22
                                    ], 
                                    "expanded_url": "http://pelsjas.tumblr.com/", 
                                    "display_url": "pelsjas.tumblr.com"
                                }
                            ]
                        }, 
                        "description": {
                            "urls": []
                        }
                    }, 
                    "followers_count": 2912, 
                    "profile_sidebar_border_color": "000000", 
                    "id_str": "215585731", 
                    "profile_background_color": "131516", 
                    "listed_count": 52, 
                    "is_translation_enabled": false, 
                    "utc_offset": -7200, 
                    "statuses_count": 23386, 
                    "description": "My voice is so husky it could pull a sled. Copywriter.", 
                    "friends_count": 293, 
                    "location": "Cape Town, South-Africa", 
                    "profile_link_color": "1C1918", 
                    "profile_image_url": "http://pbs.twimg.com/profile_images/465742266657554432/DqvQD9IK_normal.jpeg", 
                    "following": false, 
                    "geo_enabled": true, 
                    "profile_banner_url": "https://pbs.twimg.com/profile_banners/215585731/1410343591", 
                    "profile_background_image_url": "http://pbs.twimg.com/profile_background_images/511420674435346432/8S6Lvnf1.jpeg", 
                    "screen_name": "elsaPelsjas", 
                    "lang": "en", 
                    "profile_background_tile": true, 
                    "favourites_count": 13947, 
                    "name": "Pelsjas", 
                    "notifications": false, 
                    "url": "http://t.co/bBnZyJU5uV", 
                    "created_at": "Sun Nov 14 10:46:10 +0000 2010", 
                    "contributors_enabled": false, 
                    "time_zone": "Greenland", 
                    "protected": false, 
                    "default_profile": false, 
                    "is_translator": false
                }, 
                "geo": null, 
                "in_reply_to_user_id_str": null, 
                "lang": "en", 
                "created_at": "Thu Nov 01 14:55:17 +0000 2012", 
                "in_reply_to_status_id_str": null, 
                "place": null, 
                "metadata": {
                    "iso_language_code": "en", 
                    "result_type": "recent"
                }
            }, 
            "user": {
                "follow_request_sent": false, 
                "profile_use_background_image": true, 
                "default_profile_image": false, 
                "id": 23765625, 
                "profile_background_image_url_https": "https://abs.twimg.com/images/themes/theme1/bg.png", 
                "verified": false, 
                "profile_text_color": "333333", 
                "profile_image_url_https": "https://pbs.twimg.com/profile_images/3063037843/0543ca257ec2abe1a17f315e0ecdbb16_normal.jpeg", 
                "profile_sidebar_fill_color": "DDEEF6", 
                "entities": {
                    "description": {
                        "urls": []
                    }
                }, 
                "followers_count": 36, 
                "profile_sidebar_border_color": "C0DEED", 
                "id_str": "23765625", 
                "profile_background_color": "C0DEED", 
                "listed_count": 0, 
                "is_translation_enabled": false, 
                "utc_offset": null, 
                "statuses_count": 96, 
                "description": "", 
                "friends_count": 54, 
                "location": "", 
                "profile_link_color": "0084B4", 
                "profile_image_url": "http://pbs.twimg.com/profile_images/3063037843/0543ca257ec2abe1a17f315e0ecdbb16_normal.jpeg", 
                "following": false, 
                "geo_enabled": false, 
                "profile_banner_url": "https://pbs.twimg.com/profile_banners/23765625/1400004580", 
                "profile_background_image_url": "http://abs.twimg.com/images/themes/theme1/bg.png", 
                "screen_name": "moniquecool", 
                "lang": "en", 
                "profile_background_tile": false, 
                "favourites_count": 6, 
                "name": "monika khandelwal", 
                "notifications": false, 
                "url": null, 
                "created_at": "Wed Mar 11 13:56:34 +0000 2009", 
                "contributors_enabled": false, 
                "time_zone": null, 
                "protected": false, 
                "default_profile": true, 
                "is_translator": false
            }, 
            "geo": null, 
            "in_reply_to_user_id_str": null, 
            "lang": "en", 
            "created_at": "Sat Sep 13 05:54:12 +0000 2014", 
            "in_reply_to_status_id_str": null, 
            "place": null, 
            "metadata": {
                "iso_language_code": "en", 
                "result_type": "recent"
            }
        }, 
        {
            "contributors": null, 
            "truncated": false, 
            "text": "RT @JasonLastname: \"What the hell is a Responsibility Ranger?\" Ah, yes son, it comes with every Power Ranger.", 
            "in_reply_to_status_id": null, 
            "id": 510667217865039872, 
            "favorite_count": 0, 
            "source": "<a href=\"http://twitter.com\" rel=\"nofollow\">Twitter Web Client</a>", 
            "retweeted": false, 
            "coordinates": null, 
            "entities": {
                "symbols": [], 
                "user_mentions": [
                    {
                        "id": 630728313, 
                        "indices": [
                            3, 
                            17
                        ], 
                        "id_str": "630728313", 
                        "screen_name": "JasonLastname", 
                        "name": "Jason Lastname"
                    }
                ], 
                "hashtags": [], 
                "urls": []
            }, 
            "in_reply_to_screen_name": null, 
            "in_reply_to_user_id": null, 
            "retweet_count": 32, 
            "id_str": "510667217865039872", 
            "favorited": false, 
            "retweeted_status": {
                "contributors": null, 
                "truncated": false, 
                "text": "\"What the hell is a Responsibility Ranger?\" Ah, yes son, it comes with every Power Ranger.", 
                "in_reply_to_status_id": null, 
                "id": 509336720148791296, 
                "favorite_count": 56, 
                "source": "<a href=\"http://twitter.com/download/iphone\" rel=\"nofollow\">Twitter for iPhone</a>", 
                "retweeted": false, 
                "coordinates": null, 
                "entities": {
                    "symbols": [], 
                    "user_mentions": [], 
                    "hashtags": [], 
                    "urls": []
                }, 
                "in_reply_to_screen_name": null, 
                "in_reply_to_user_id": null, 
                "retweet_count": 32, 
                "id_str": "509336720148791296", 
                "favorited": false, 
                "user": {
                    "follow_request_sent": false, 
                    "profile_use_background_image": false, 
                    "default_profile_image": false, 
                    "id": 630728313, 
                    "profile_background_image_url_https": "https://pbs.twimg.com/profile_background_images/378800000160786827/e-LQB7il.jpeg", 
                    "verified": false, 
                    "profile_text_color": "333333", 
                    "profile_image_url_https": "https://pbs.twimg.com/profile_images/482228559071559680/uYA-dTwa_normal.jpeg", 
                    "profile_sidebar_fill_color": "DDEEF6", 
                    "entities": {
                        "url": {
                            "urls": [
                                {
                                    "url": "http://t.co/ZpSYDFNuMj", 
                                    "indices": [
                                        0, 
                                        22
                                    ], 
                                    "expanded_url": "http://favstar.fm/users/JasonLastname", 
                                    "display_url": "favstar.fm/users/JasonLas…"
                                }
                            ]
                        }, 
                        "description": {
                            "urls": [
                                {
                                    "url": "http://t.co/2jkbDbcUzj", 
                                    "indices": [
                                        32, 
                                        54
                                    ], 
                                    "expanded_url": "http://society6.com/804jason/prints", 
                                    "display_url": "society6.com/804jason/prints"
                                }
                            ]
                        }
                    }, 
                    "followers_count": 15071, 
                    "profile_sidebar_border_color": "000000", 
                    "id_str": "630728313", 
                    "profile_background_color": "FFFFFF", 
                    "listed_count": 550, 
                    "is_translation_enabled": false, 
                    "utc_offset": -10800, 
                    "statuses_count": 5545, 
                    "description": "stop laughing, it's not funny • http://t.co/2jkbDbcUzj • RVA", 
                    "friends_count": 966, 
                    "location": "", 
                    "profile_link_color": "0084B4", 
                    "profile_image_url": "http://pbs.twimg.com/profile_images/482228559071559680/uYA-dTwa_normal.jpeg", 
                    "following": false, 
                    "geo_enabled": false, 
                    "profile_banner_url": "https://pbs.twimg.com/profile_banners/630728313/1391008331", 
                    "profile_background_image_url": "http://pbs.twimg.com/profile_background_images/378800000160786827/e-LQB7il.jpeg", 
                    "screen_name": "JasonLastname", 
                    "lang": "en", 
                    "profile_background_tile": false, 
                    "favourites_count": 23986, 
                    "name": "Jason Lastname", 
                    "notifications": false, 
                    "url": "http://t.co/ZpSYDFNuMj", 
                    "created_at": "Mon Jul 09 00:40:11 +0000 2012", 
                    "contributors_enabled": false, 
                    "time_zone": "Atlantic Time (Canada)", 
                    "protected": false, 
                    "default_profile": false, 
                    "is_translator": false
                }, 
                "geo": null, 
                "in_reply_to_user_id_str": null, 
                "lang": "en", 
                "created_at": "Tue Sep 09 13:45:11 +0000 2014", 
                "in_reply_to_status_id_str": null, 
                "place": null, 
                "metadata": {
                    "iso_language_code": "en", 
                    "result_type": "recent"
                }
            }, 
            "user": {
                "follow_request_sent": false, 
                "profile_use_background_image": true, 
                "default_profile_image": false, 
                "id": 23765625, 
                "profile_background_image_url_https": "https://abs.twimg.com/images/themes/theme1/bg.png", 
                "verified": false, 
                "profile_text_color": "333333", 
                "profile_image_url_https": "https://pbs.twimg.com/profile_images/3063037843/0543ca257ec2abe1a17f315e0ecdbb16_normal.jpeg", 
                "profile_sidebar_fill_color": "DDEEF6", 
                "entities": {
                    "description": {
                        "urls": []
                    }
                }, 
                "followers_count": 36, 
                "profile_sidebar_border_color": "C0DEED", 
                "id_str": "23765625", 
                "profile_background_color": "C0DEED", 
                "listed_count": 0, 
                "is_translation_enabled": false, 
                "utc_offset": null, 
                "statuses_count": 96, 
                "description": "", 
                "friends_count": 54, 
                "location": "", 
                "profile_link_color": "0084B4", 
                "profile_image_url": "http://pbs.twimg.com/profile_images/3063037843/0543ca257ec2abe1a17f315e0ecdbb16_normal.jpeg", 
                "following": false, 
                "geo_enabled": false, 
                "profile_banner_url": "https://pbs.twimg.com/profile_banners/23765625/1400004580", 
                "profile_background_image_url": "http://abs.twimg.com/images/themes/theme1/bg.png", 
                "screen_name": "moniquecool", 
                "lang": "en", 
                "profile_background_tile": false, 
                "favourites_count": 6, 
                "name": "monika khandelwal", 
                "notifications": false, 
                "url": null, 
                "created_at": "Wed Mar 11 13:56:34 +0000 2009", 
                "contributors_enabled": false, 
                "time_zone": null, 
                "protected": false, 
                "default_profile": true, 
                "is_translator": false
            }, 
            "geo": null, 
            "in_reply_to_user_id_str": null, 
            "lang": "en", 
            "created_at": "Sat Sep 13 05:52:07 +0000 2014", 
            "in_reply_to_status_id_str": null, 
            "place": null, 
            "metadata": {
                "iso_language_code": "en", 
                "result_type": "recent"
            }
        }, 
        {
            "contributors": null, 
            "truncated": false, 
            "text": "RT @JasonLastname: Name your kid Typical, so you can say it sarcastically when they disappoint you.", 
            "in_reply_to_status_id": null, 
            "id": 510666751345192961, 
            "favorite_count": 0, 
            "source": "<a href=\"http://twitter.com\" rel=\"nofollow\">Twitter Web Client</a>", 
            "retweeted": false, 
            "coordinates": null, 
            "entities": {
                "symbols": [], 
                "user_mentions": [
                    {
                        "id": 630728313, 
                        "indices": [
                            3, 
                            17
                        ], 
                        "id_str": "630728313", 
                        "screen_name": "JasonLastname", 
                        "name": "Jason Lastname"
                    }
                ], 
                "hashtags": [], 
                "urls": []
            }, 
            "in_reply_to_screen_name": null, 
            "in_reply_to_user_id": null, 
            "retweet_count": 98, 
            "id_str": "510666751345192961", 
            "favorited": false, 
            "retweeted_status": {
                "contributors": null, 
                "truncated": false, 
                "text": "Name your kid Typical, so you can say it sarcastically when they disappoint you.", 
                "in_reply_to_status_id": null, 
                "id": 509700179487109120, 
                "favorite_count": 164, 
                "source": "<a href=\"http://twitter.com/download/iphone\" rel=\"nofollow\">Twitter for iPhone</a>", 
                "retweeted": false, 
                "coordinates": null, 
                "entities": {
                    "symbols": [], 
                    "user_mentions": [], 
                    "hashtags": [], 
                    "urls": []
                }, 
                "in_reply_to_screen_name": null, 
                "in_reply_to_user_id": null, 
                "retweet_count": 98, 
                "id_str": "509700179487109120", 
                "favorited": false, 
                "user": {
                    "follow_request_sent": false, 
                    "profile_use_background_image": false, 
                    "default_profile_image": false, 
                    "id": 630728313, 
                    "profile_background_image_url_https": "https://pbs.twimg.com/profile_background_images/378800000160786827/e-LQB7il.jpeg", 
                    "verified": false, 
                    "profile_text_color": "333333", 
                    "profile_image_url_https": "https://pbs.twimg.com/profile_images/482228559071559680/uYA-dTwa_normal.jpeg", 
                    "profile_sidebar_fill_color": "DDEEF6", 
                    "entities": {
                        "url": {
                            "urls": [
                                {
                                    "url": "http://t.co/ZpSYDFNuMj", 
                                    "indices": [
                                        0, 
                                        22
                                    ], 
                                    "expanded_url": "http://favstar.fm/users/JasonLastname", 
                                    "display_url": "favstar.fm/users/JasonLas…"
                                }
                            ]
                        }, 
                        "description": {
                            "urls": [
                                {
                                    "url": "http://t.co/2jkbDbcUzj", 
                                    "indices": [
                                        32, 
                                        54
                                    ], 
                                    "expanded_url": "http://society6.com/804jason/prints", 
                                    "display_url": "society6.com/804jason/prints"
                                }
                            ]
                        }
                    }, 
                    "followers_count": 15071, 
                    "profile_sidebar_border_color": "000000", 
                    "id_str": "630728313", 
                    "profile_background_color": "FFFFFF", 
                    "listed_count": 550, 
                    "is_translation_enabled": false, 
                    "utc_offset": -10800, 
                    "statuses_count": 5545, 
                    "description": "stop laughing, it's not funny • http://t.co/2jkbDbcUzj • RVA", 
                    "friends_count": 966, 
                    "location": "", 
                    "profile_link_color": "0084B4", 
                    "profile_image_url": "http://pbs.twimg.com/profile_images/482228559071559680/uYA-dTwa_normal.jpeg", 
                    "following": false, 
                    "geo_enabled": false, 
                    "profile_banner_url": "https://pbs.twimg.com/profile_banners/630728313/1391008331", 
                    "profile_background_image_url": "http://pbs.twimg.com/profile_background_images/378800000160786827/e-LQB7il.jpeg", 
                    "screen_name": "JasonLastname", 
                    "lang": "en", 
                    "profile_background_tile": false, 
                    "favourites_count": 23986, 
                    "name": "Jason Lastname", 
                    "notifications": false, 
                    "url": "http://t.co/ZpSYDFNuMj", 
                    "created_at": "Mon Jul 09 00:40:11 +0000 2012", 
                    "contributors_enabled": false, 
                    "time_zone": "Atlantic Time (Canada)", 
                    "protected": false, 
                    "default_profile": false, 
                    "is_translator": false
                }, 
                "geo": null, 
                "in_reply_to_user_id_str": null, 
                "lang": "en", 
                "created_at": "Wed Sep 10 13:49:27 +0000 2014", 
                "in_reply_to_status_id_str": null, 
                "place": null, 
                "metadata": {
                    "iso_language_code": "en", 
                    "result_type": "recent"
                }
            }, 
            "user": {
                "follow_request_sent": false, 
                "profile_use_background_image": true, 
                "default_profile_image": false, 
                "id": 23765625, 
                "profile_background_image_url_https": "https://abs.twimg.com/images/themes/theme1/bg.png", 
                "verified": false, 
                "profile_text_color": "333333", 
                "profile_image_url_https": "https://pbs.twimg.com/profile_images/3063037843/0543ca257ec2abe1a17f315e0ecdbb16_normal.jpeg", 
                "profile_sidebar_fill_color": "DDEEF6", 
                "entities": {
                    "description": {
                        "urls": []
                    }
                }, 
                "followers_count": 36, 
                "profile_sidebar_border_color": "C0DEED", 
                "id_str": "23765625", 
                "profile_background_color": "C0DEED", 
                "listed_count": 0, 
                "is_translation_enabled": false, 
                "utc_offset": null, 
                "statuses_count": 96, 
                "description": "", 
                "friends_count": 54, 
                "location": "", 
                "profile_link_color": "0084B4", 
                "profile_image_url": "http://pbs.twimg.com/profile_images/3063037843/0543ca257ec2abe1a17f315e0ecdbb16_normal.jpeg", 
                "following": false, 
                "geo_enabled": false, 
                "profile_banner_url": "https://pbs.twimg.com/profile_banners/23765625/1400004580", 
                "profile_background_image_url": "http://abs.twimg.com/images/themes/theme1/bg.png", 
                "screen_name": "moniquecool", 
                "lang": "en", 
                "profile_background_tile": false, 
                "favourites_count": 6, 
                "name": "monika khandelwal", 
                "notifications": false, 
                "url": null, 
                "created_at": "Wed Mar 11 13:56:34 +0000 2009", 
                "contributors_enabled": false, 
                "time_zone": null, 
                "protected": false, 
                "default_profile": true, 
                "is_translator": false
            }, 
            "geo": null, 
            "in_reply_to_user_id_str": null, 
            "lang": "en", 
            "created_at": "Sat Sep 13 05:50:15 +0000 2014", 
            "in_reply_to_status_id_str": null, 
            "place": null, 
            "metadata": {
                "iso_language_code": "en", 
                "result_type": "recent"
            }
        }
    ]
}