{
    "paging": {
        "cursors": {
            "after": "NTE=", 
            "before": "MQ=="
        }, 
        "next": "https://graph.facebook.com/v1.0/10152424779993040/comments?limit=50&access_token=CAACEdEose0cBAHTFhzZCanxQ017iR8d2DTNE67ZBGIUWUEClfPAJkIkLB7y0ebuUXvP8VZBXDAZBg28kZCgYkCl7pmbDuZBEXWGskY7cm9rJYQFHFGnY5d7fZAjVbBTZB8gMqPmquxZA5c6mVZAoRx3roI5Ko2cdPBsCBdkRyDXVq36xd0ZA2wWwZCDvB2wD8ZBqbCUqa3iEhmgveaZBZAlShxr0AwT1Pn2YIP50ggZD&after=NTE%3D"
    }, 
    "data": [
        {
            "from": {
                "id": "100005728478249", 
                "name": "Natalie Rotstein"
            }, 
            "like_count": 5, 
            "can_remove": false, 
            "created_time": "2014-09-04T19:24:29+0000", 
            "message": "rip <3", 
            "id": "10152424779993040_10152424780423040", 
            "user_likes": false
        }, 
        {
            "from": {
                "id": "100001295852241", 
                "name": "Jared Khan-Bagley"
            }, 
            "like_count": 0, 
            "can_remove": false, 
            "created_time": "2014-09-04T19:24:32+0000", 
            "message": "Prayers", 
            "id": "10152424779993040_10152424780618040", 
            "user_likes": false
        }, 
        {
            "from": {
                "id": "1160282205", 
                "name": "Raymond Greer"
            }, 
            "like_count": 4, 
            "can_remove": false, 
            "created_time": "2014-09-04T19:24:37+0000", 
            "message": "Thank you for sharing her with us.", 
            "id": "10152424779993040_10152424780833040", 
            "user_likes": false
        }, 
        {
            "from": {
                "id": "100000184228443", 
                "name": "Laura Elizabeth Couvillon"
            }, 
            "like_count": 0, 
            "can_remove": false, 
            "created_time": "2014-09-04T19:24:39+0000", 
            "message": "RIP", 
            "id": "10152424779993040_10152424780928040", 
            "user_likes": false
        }, 
        {
            "from": {
                "id": "100000029125592", 
                "name": "Dianne Fisk Hinch"
            }, 
            "like_count": 1, 
            "can_remove": false, 
            "created_time": "2014-09-04T19:24:40+0000", 
            "message": "I am very sorry for your loss.", 
            "id": "10152424779993040_10152424780958040", 
            "user_likes": false
        }, 
        {
            "from": {
                "id": "1108282616", 
                "name": "Velia Berrones"
            }, 
            "message_tags": [
                {
                    "length": 17, 
                    "offset": 5, 
                    "type": "user", 
                    "id": "600112169", 
                    "name": "Jonathan Martinez"
                }
            ], 
            "like_count": 1, 
            "can_remove": false, 
            "created_time": "2014-09-04T19:24:42+0000", 
            "message": "😭😭😭😭 Jonathan Martinez", 
            "id": "10152424779993040_10152424781038040", 
            "user_likes": false
        }, 
        {
            "from": {
                "id": "620304173", 
                "name": "Kenny Young"
            }, 
            "like_count": 0, 
            "can_remove": false, 
            "created_time": "2014-09-04T19:24:42+0000", 
            "message": "SHE WILL BE MISSED. Best wishes to you and your family during this difficult time.", 
            "id": "10152424779993040_10152424781043040", 
            "user_likes": false
        }, 
        {
            "from": {
                "id": "1088860923", 
                "name": "André Domingues"
            }, 
            "like_count": 1, 
            "can_remove": false, 
            "created_time": "2014-09-04T19:24:43+0000", 
            "message": "She will be missed :(", 
            "id": "10152424779993040_10152424781068040", 
            "user_likes": false
        }, 
        {
            "from": {
                "id": "760097382", 
                "name": "James West"
            }, 
            "like_count": 0, 
            "can_remove": false, 
            "created_time": "2014-09-04T19:24:43+0000", 
            "message": ":(", 
            "id": "10152424779993040_10152424781108040", 
            "user_likes": false
        }, 
        {
            "from": {
                "id": "1031413439", 
                "name": "Vizent Martland"
            }, 
            "like_count": 2, 
            "can_remove": false, 
            "created_time": "2014-09-04T19:24:44+0000", 
            "message": "praying for you! loving her forever!", 
            "id": "10152424779993040_10152424781143040", 
            "user_likes": false
        }, 
        {
            "from": {
                "id": "1094063922", 
                "name": "Lea Ann Smith"
            }, 
            "like_count": 3, 
            "can_remove": false, 
            "created_time": "2014-09-04T19:24:45+0000", 
            "message": "\"Can we talk?\" :'(", 
            "id": "10152424779993040_10152424781163040", 
            "user_likes": false
        }, 
        {
            "from": {
                "id": "862795023", 
                "name": "Mark Hindle"
            }, 
            "like_count": 0, 
            "can_remove": false, 
            "created_time": "2014-09-04T19:24:46+0000", 
            "message": "RIP Joan xxx", 
            "id": "10152424779993040_10152424781198040", 
            "user_likes": false
        }, 
        {
            "from": {
                "id": "696105710", 
                "name": "Aileen Mullee DiTuri"
            }, 
            "like_count": 0, 
            "can_remove": false, 
            "created_time": "2014-09-04T19:24:48+0000", 
            "message": "Prayers to Joan's family. She will be missed.", 
            "id": "10152424779993040_10152424781313040", 
            "user_likes": false
        }, 
        {
            "from": {
                "id": "1628594429", 
                "name": "Walter Keaney"
            }, 
            "like_count": 0, 
            "can_remove": false, 
            "created_time": "2014-09-04T19:24:49+0000", 
            "message": ":(((", 
            "id": "10152424779993040_10152424781368040", 
            "user_likes": false
        }, 
        {
            "from": {
                "id": "1836383327", 
                "name": "Matthew Waite"
            }, 
            "like_count": 0, 
            "can_remove": false, 
            "created_time": "2014-09-04T19:24:50+0000", 
            "message": "RIP", 
            "id": "10152424779993040_10152424781408040", 
            "user_likes": false
        }, 
        {
            "from": {
                "id": "100004702453908", 
                "name": "Jeanette Reinbold"
            }, 
            "like_count": 0, 
            "can_remove": false, 
            "created_time": "2014-09-04T19:24:52+0000", 
            "message": ":(", 
            "id": "10152424779993040_10152424781498040", 
            "user_likes": false
        }, 
        {
            "from": {
                "id": "676650050", 
                "name": "Ian Scott"
            }, 
            "like_count": 2, 
            "can_remove": false, 
            "created_time": "2014-09-04T19:24:53+0000", 
            "message": "Thank you for all the laughs. You were truly one of the greats", 
            "id": "10152424779993040_10152424781538040", 
            "user_likes": false
        }, 
        {
            "from": {
                "id": "100001110044583", 
                "name": "Cathy Anderson"
            }, 
            "like_count": 1, 
            "can_remove": false, 
            "created_time": "2014-09-04T19:24:53+0000", 
            "message": "She will be greatly missed.", 
            "id": "10152424779993040_10152424781548040", 
            "user_likes": false
        }, 
        {
            "from": {
                "id": "100004243272872", 
                "name": "Eroom Gink"
            }, 
            "like_count": 0, 
            "can_remove": false, 
            "created_time": "2014-09-04T19:24:53+0000", 
            "message": "About damn time", 
            "id": "10152424779993040_10152424781553040", 
            "user_likes": false
        }, 
        {
            "from": {
                "id": "1215531655", 
                "name": "Li Dixon"
            }, 
            "like_count": 0, 
            "can_remove": false, 
            "created_time": "2014-09-04T19:24:53+0000", 
            "message": "Oh no. So sad :(", 
            "id": "10152424779993040_10152424781558040", 
            "user_likes": false
        }, 
        {
            "from": {
                "id": "1721364751", 
                "name": "Stacy Clevenger"
            }, 
            "like_count": 0, 
            "can_remove": false, 
            "created_time": "2014-09-04T19:24:54+0000", 
            "message": "RIP Joan", 
            "id": "10152424779993040_10152424781603040", 
            "user_likes": false
        }, 
        {
            "from": {
                "id": "65904599", 
                "name": "D-Niece Marie"
            }, 
            "like_count": 0, 
            "can_remove": false, 
            "created_time": "2014-09-04T19:24:55+0000", 
            "message": "Such a sad time for the Rivers family...thinking of you all!", 
            "id": "10152424779993040_10152424781613040", 
            "user_likes": false
        }, 
        {
            "from": {
                "id": "100004224102604", 
                "name": "Petunia Pickelbaum"
            }, 
            "like_count": 0, 
            "can_remove": false, 
            "created_time": "2014-09-04T19:24:55+0000", 
            "message": "My heart is with you. :(", 
            "id": "10152424779993040_10152424781633040", 
            "user_likes": false
        }, 
        {
            "from": {
                "id": "1493078983", 
                "name": "Luis Amaya Torres"
            }, 
            "like_count": 0, 
            "can_remove": false, 
            "created_time": "2014-09-04T19:24:55+0000", 
            "message": ":(((((", 
            "id": "10152424779993040_10152424781648040", 
            "user_likes": false
        }, 
        {
            "from": {
                "id": "568540625", 
                "name": "Ileanell Perez"
            }, 
            "like_count": 0, 
            "can_remove": false, 
            "created_time": "2014-09-04T19:24:56+0000", 
            "message": ":'(", 
            "id": "10152424779993040_10152424781698040", 
            "user_likes": false
        }, 
        {
            "from": {
                "id": "1826197477", 
                "name": "Della Tadeo"
            }, 
            "like_count": 0, 
            "can_remove": false, 
            "created_time": "2014-09-04T19:24:56+0000", 
            "message": "♥", 
            "id": "10152424779993040_10152424781718040", 
            "user_likes": false
        }, 
        {
            "from": {
                "id": "100003925450538", 
                "name": "Candus Martinez"
            }, 
            "like_count": 0, 
            "can_remove": false, 
            "created_time": "2014-09-04T19:24:57+0000", 
            "message": "<3", 
            "id": "10152424779993040_10152424781763040", 
            "user_likes": false
        }, 
        {
            "from": {
                "id": "1079087098", 
                "name": "Maryellen Pedroso Raymond"
            }, 
            "like_count": 1, 
            "can_remove": false, 
            "created_time": "2014-09-04T19:24:57+0000", 
            "message": "RIP 👼🙏💜", 
            "id": "10152424779993040_10152424781768040", 
            "user_likes": false
        }, 
        {
            "from": {
                "id": "633847151", 
                "name": "Ian Yan Kakas"
            }, 
            "like_count": 0, 
            "can_remove": false, 
            "created_time": "2014-09-04T19:24:57+0000", 
            "message": "sorry for your loss xx", 
            "id": "10152424779993040_10152424781793040", 
            "user_likes": false
        }, 
        {
            "from": {
                "id": "1231182124", 
                "name": "Jerry Thomson"
            }, 
            "like_count": 1, 
            "can_remove": false, 
            "created_time": "2014-09-04T19:24:58+0000", 
            "message": "RIP Joan.  You were much loved by all of us", 
            "id": "10152424779993040_10152424781813040", 
            "user_likes": false
        }, 
        {
            "from": {
                "id": "1562413993", 
                "name": "Roma Mah"
            }, 
            "like_count": 4, 
            "can_remove": false, 
            "created_time": "2014-09-04T19:24:58+0000", 
            "message": "The red carpet will never be the same. RIP!!", 
            "id": "10152424779993040_10152424781823040", 
            "user_likes": false
        }, 
        {
            "from": {
                "id": "517723232", 
                "name": "Kari Delaney"
            }, 
            "like_count": 0, 
            "can_remove": false, 
            "created_time": "2014-09-04T19:24:58+0000", 
            "message": "RIP", 
            "id": "10152424779993040_10152424781838040", 
            "user_likes": false
        }, 
        {
            "from": {
                "id": "570361162", 
                "name": "Erica Forrest"
            }, 
            "like_count": 1, 
            "can_remove": false, 
            "created_time": "2014-09-04T19:24:58+0000", 
            "message": "Loved your mother's wit", 
            "id": "10152424779993040_10152424781843040", 
            "user_likes": false
        }, 
        {
            "from": {
                "id": "666032465", 
                "name": "Eugenia  Cal y Mayor"
            }, 
            "like_count": 0, 
            "can_remove": false, 
            "created_time": "2014-09-04T19:24:58+0000", 
            "message": ":( :(", 
            "id": "10152424779993040_10152424781848040", 
            "user_likes": false
        }, 
        {
            "from": {
                "id": "1025498300", 
                "name": "Darrell Hilton"
            }, 
            "like_count": 0, 
            "can_remove": false, 
            "created_time": "2014-09-04T19:24:59+0000", 
            "message": ":'(", 
            "id": "10152424779993040_10152424781898040", 
            "user_likes": false
        }, 
        {
            "from": {
                "id": "100007865593770", 
                "name": "Kathleen Laura"
            }, 
            "like_count": 2, 
            "can_remove": false, 
            "created_time": "2014-09-04T19:24:59+0000", 
            "message": "I AM SO SORRY FOR YOUR LOSS SHE WAS AN AMAzing hUMAN BEING! REST IN PEACE", 
            "id": "10152424779993040_10152424781913040", 
            "user_likes": false
        }, 
        {
            "from": {
                "id": "1185699529", 
                "name": "Jhomira Rodriguez Minaya"
            }, 
            "like_count": 0, 
            "can_remove": false, 
            "created_time": "2014-09-04T19:25:00+0000", 
            "message": ":'(", 
            "id": "10152424779993040_10152424781923040", 
            "user_likes": false
        }, 
        {
            "from": {
                "id": "100002645073208", 
                "name": "Heather McClain"
            }, 
            "like_count": 0, 
            "can_remove": false, 
            "created_time": "2014-09-04T19:25:00+0000", 
            "message": "God bless", 
            "id": "10152424779993040_10152424781933040", 
            "user_likes": false
        }, 
        {
            "from": {
                "id": "628310422", 
                "name": "Lacey Cowles Rogers"
            }, 
            "like_count": 0, 
            "can_remove": false, 
            "created_time": "2014-09-04T19:25:00+0000", 
            "message": "I'm sorry :(", 
            "id": "10152424779993040_10152424781978040", 
            "user_likes": false
        }, 
        {
            "from": {
                "id": "1128426747", 
                "name": "Pennie Boudreaux Babin"
            }, 
            "like_count": 0, 
            "can_remove": false, 
            "created_time": "2014-09-04T19:25:00+0000", 
            "message": "RIP Joan :(:(", 
            "id": "10152424779993040_10152424781983040", 
            "user_likes": false
        }, 
        {
            "from": {
                "id": "100001087475403", 
                "name": "Perla Yanet Piedra N"
            }, 
            "like_count": 0, 
            "can_remove": false, 
            "created_time": "2014-09-04T19:25:01+0000", 
            "message": "u.u", 
            "id": "10152424779993040_10152424782008040", 
            "user_likes": false
        }, 
        {
            "from": {
                "id": "610034082", 
                "name": "Matt Pawlyk"
            }, 
            "like_count": 0, 
            "can_remove": false, 
            "created_time": "2014-09-04T19:25:02+0000", 
            "message": "Such a great loss...", 
            "id": "10152424779993040_10152424782023040", 
            "user_likes": false
        }, 
        {
            "from": {
                "id": "690972668", 
                "name": "April Wyatt Miller"
            }, 
            "like_count": 2, 
            "can_remove": false, 
            "created_time": "2014-09-04T19:25:02+0000", 
            "message": "So sorry for your loss. She was an amazing woman.", 
            "id": "10152424779993040_10152424782038040", 
            "user_likes": false
        }, 
        {
            "from": {
                "id": "1207712012", 
                "name": "David Arzuaga"
            }, 
            "like_count": 0, 
            "can_remove": false, 
            "created_time": "2014-09-04T19:25:03+0000", 
            "message": "Thinking of you. Joan will be sorely missed.", 
            "id": "10152424779993040_10152424782078040", 
            "user_likes": false
        }, 
        {
            "from": {
                "id": "1577541917", 
                "name": "Victor Hartwell"
            }, 
            "like_count": 0, 
            "can_remove": false, 
            "created_time": "2014-09-04T19:25:03+0000", 
            "message": "I am so sad. No more awesome people dying please.", 
            "id": "10152424779993040_10152424782103040", 
            "user_likes": false
        }, 
        {
            "from": {
                "id": "759631353", 
                "name": "Michael Boundy"
            }, 
            "like_count": 0, 
            "can_remove": false, 
            "created_time": "2014-09-04T19:25:03+0000", 
            "message": "RIP Miss Joan 😢", 
            "id": "10152424779993040_10152424782108040", 
            "user_likes": false
        }, 
        {
            "from": {
                "id": "509516390", 
                "name": "Linda Richardson"
            }, 
            "like_count": 0, 
            "can_remove": false, 
            "created_time": "2014-09-04T19:25:04+0000", 
            "message": "Rip", 
            "id": "10152424779993040_10152424782123040", 
            "user_likes": false
        }, 
        {
            "from": {
                "id": "648234637", 
                "name": "Wade Clarke"
            }, 
            "like_count": 0, 
            "can_remove": false, 
            "created_time": "2014-09-04T19:25:04+0000", 
            "message": ":(", 
            "id": "10152424779993040_10152424782138040", 
            "user_likes": false
        }, 
        {
            "from": {
                "id": "1271283350", 
                "name": "Jenny Aponte"
            }, 
            "like_count": 2, 
            "can_remove": false, 
            "created_time": "2014-09-04T19:25:04+0000", 
            "message": "Great Lady - may she rest in peace.", 
            "id": "10152424779993040_10152424782158040", 
            "user_likes": false
        }, 
        {
            "from": {
                "id": "1336273765", 
                "name": "Cheryl Ann Anctil Mazzucchi"
            }, 
            "like_count": 3, 
            "can_remove": false, 
            "created_time": "2014-09-04T19:25:04+0000", 
            "message": "Praying for you all! She was an amazing woman!!!", 
            "id": "10152424779993040_10152424782163040", 
            "user_likes": false
        }
    ]
}