{
    "friends": {
        "paging": {
            "next": "https://graph.facebook.com/v1.0/10203897415252203/friends?limit=10&fields=likes.limit%2810%29&access_token=CAACEdEose0cBAKE7yeZAQZBQz8wzZAmXva7GO398ZCDt3EWZBjxbyeGMBZAZAm8mZC0PrbJlMlVzIMIWO2JvnmDmHXkkVvuKE2kZC4k5ZCIsKx24CbJwsKyMLmQZCoz94j2uWH8XIb5PzZB0phdCZATaMtpLzk2Sspu6zQgI1kWpanaYK53ZA6V3zVJ6fytGOW6RwmD4MgPaUpSTZBQIiJDaSAmBpPi6FqktFr7yCcZD&offset=10&__after_id=enc_AewRsma-VRQ4HibLOPWktMmoYmQrPfsTmxPteh_lblp3Lv2xq8Y0gMWIV4QRWItff3Q"
        }, 
        "data": [
            {
                "id": "19147", 
                "likes": {
                    "paging": {
                        "cursors": {
                            "after": "MTA4MjI1ODI1ODcyNDQ2", 
                            "before": "MTk0NDU2MDMzODk4MjAy"
                        }, 
                        "next": "https://graph.facebook.com/v1.0/19147/likes?limit=10&access_token=CAACEdEose0cBAKE7yeZAQZBQz8wzZAmXva7GO398ZCDt3EWZBjxbyeGMBZAZAm8mZC0PrbJlMlVzIMIWO2JvnmDmHXkkVvuKE2kZC4k5ZCIsKx24CbJwsKyMLmQZCoz94j2uWH8XIb5PzZB0phdCZATaMtpLzk2Sspu6zQgI1kWpanaYK53ZA6V3zVJ6fytGOW6RwmD4MgPaUpSTZBQIiJDaSAmBpPi6FqktFr7yCcZD&after=MTA4MjI1ODI1ODcyNDQ2"
                    }, 
                    "data": [
                        {
                            "category": "Bank/financial institution", 
                            "created_time": "2014-08-05T00:27:15+0000", 
                            "name": "Lenddo - Philippines", 
                            "category_list": [
                                {
                                    "id": "2234", 
                                    "name": "Bank/Financial Institution"
                                }
                            ], 
                            "id": "194456033898202"
                        }, 
                        {
                            "category": "Education", 
                            "created_time": "2014-07-10T14:42:15+0000", 
                            "name": "Centre for Health Informatics NUS", 
                            "id": "300719486726207"
                        }, 
                        {
                            "category": "Software", 
                            "created_time": "2014-06-19T03:31:56+0000", 
                            "name": "PlanOut", 
                            "id": "689345241104704"
                        }, 
                        {
                            "category": "Non-profit organization", 
                            "created_time": "2014-06-09T15:42:00+0000", 
                            "name": "Marketing Science Institute", 
                            "category_list": [
                                {
                                    "id": "2603", 
                                    "name": "Non-Profit Organization"
                                }
                            ], 
                            "id": "208670689238289"
                        }, 
                        {
                            "category": "Company", 
                            "created_time": "2014-05-10T04:16:50+0000", 
                            "name": "Singapore Press Holdings - Engaging Minds, Enriching Lives", 
                            "id": "185876291770"
                        }, 
                        {
                            "category": "Public figure", 
                            "created_time": "2014-04-27T10:16:43+0000", 
                            "name": "Ladyironchef", 
                            "id": "376295909054730"
                        }, 
                        {
                            "category": "Organization", 
                            "created_time": "2014-04-06T04:29:43+0000", 
                            "name": "NET Institute", 
                            "id": "318600574848684"
                        }, 
                        {
                            "category": "Entertainment website", 
                            "created_time": "2014-04-04T04:56:04+0000", 
                            "name": "SMBC Comics", 
                            "id": "244830742251856"
                        }, 
                        {
                            "category": "Outdoor gear/sporting goods", 
                            "created_time": "2014-04-02T15:54:15+0000", 
                            "name": "The Wheelies", 
                            "category_list": [
                                {
                                    "id": "152880021441864", 
                                    "name": "Community Organization"
                                }, 
                                {
                                    "id": "139721016091877", 
                                    "name": "Outdoor Recreation"
                                }
                            ], 
                            "id": "495359077212618"
                        }, 
                        {
                            "category": "Book", 
                            "created_time": "2014-04-02T11:34:29+0000", 
                            "name": "The Paradox of Choice", 
                            "id": "108225825872446"
                        }
                    ]
                }
            }, 
            {
                "id": "12929290"
            }, 
            {
                "id": "508623312", 
                "likes": {
                    "paging": {
                        "cursors": {
                            "after": "Mjk5MTk0NzkyNTc=", 
                            "before": "NDk4NDAzMjAzNTk3Mzcw"
                        }, 
                        "next": "https://graph.facebook.com/v1.0/508623312/likes?limit=10&access_token=CAACEdEose0cBAKE7yeZAQZBQz8wzZAmXva7GO398ZCDt3EWZBjxbyeGMBZAZAm8mZC0PrbJlMlVzIMIWO2JvnmDmHXkkVvuKE2kZC4k5ZCIsKx24CbJwsKyMLmQZCoz94j2uWH8XIb5PzZB0phdCZATaMtpLzk2Sspu6zQgI1kWpanaYK53ZA6V3zVJ6fytGOW6RwmD4MgPaUpSTZBQIiJDaSAmBpPi6FqktFr7yCcZD&after=Mjk5MTk0NzkyNTc%3D"
                    }, 
                    "data": [
                        {
                            "category": "Musician/band", 
                            "created_time": "2014-07-31T16:23:14+0000", 
                            "name": "Patti Page - Singer", 
                            "id": "498403203597370"
                        }, 
                        {
                            "category": "Community", 
                            "created_time": "2014-07-25T14:46:46+0000", 
                            "name": "Qornayel -قرنايل", 
                            "id": "564066220375225"
                        }, 
                        {
                            "category": "Musician/band", 
                            "created_time": "2014-07-15T21:40:39+0000", 
                            "name": "Oscar Peterson Music", 
                            "id": "8512154861"
                        }, 
                        {
                            "category": "Public figure", 
                            "created_time": "2014-06-16T00:04:10+0000", 
                            "name": "Xi Jinping 习近平", 
                            "id": "291898257591238"
                        }, 
                        {
                            "category": "Sports team", 
                            "created_time": "2014-06-09T01:15:56+0000", 
                            "name": "Motorcycles", 
                            "id": "142412419286273"
                        }, 
                        {
                            "category": "Media/news/publishing", 
                            "created_time": "2014-04-28T22:36:02+0000", 
                            "name": "VICE", 
                            "id": "167115176655082"
                        }, 
                        {
                            "category": "Business person", 
                            "created_time": "2014-03-23T18:36:10+0000", 
                            "name": "Heidi Roizen", 
                            "id": "241147212738462"
                        }, 
                        {
                            "category": "Community", 
                            "created_time": "2014-03-23T12:17:50+0000", 
                            "name": "Hành trình Sống Thiền", 
                            "id": "620575488012170"
                        }, 
                        {
                            "category": "Sports team", 
                            "created_time": "2014-03-02T13:29:24+0000", 
                            "name": "Chicago Bulls", 
                            "category_list": [
                                {
                                    "id": "189018581118681", 
                                    "name": "Sports Club"
                                }
                            ], 
                            "id": "37152881613"
                        }, 
                        {
                            "category": "Sports team", 
                            "created_time": "2014-03-02T13:29:23+0000", 
                            "name": "Chicago Blackhawks", 
                            "category_list": [
                                {
                                    "id": "189018581118681", 
                                    "name": "Sports Club"
                                }
                            ], 
                            "id": "29919479257"
                        }
                    ]
                }
            }, 
            {
                "id": "554227262", 
                "likes": {
                    "paging": {
                        "cursors": {
                            "after": "MjU3NTI0MzEwOTg2NDk1", 
                            "before": "MjA1NjE5ODI2MTM1Mjk2"
                        }, 
                        "next": "https://graph.facebook.com/v1.0/554227262/likes?limit=10&access_token=CAACEdEose0cBAKE7yeZAQZBQz8wzZAmXva7GO398ZCDt3EWZBjxbyeGMBZAZAm8mZC0PrbJlMlVzIMIWO2JvnmDmHXkkVvuKE2kZC4k5ZCIsKx24CbJwsKyMLmQZCoz94j2uWH8XIb5PzZB0phdCZATaMtpLzk2Sspu6zQgI1kWpanaYK53ZA6V3zVJ6fytGOW6RwmD4MgPaUpSTZBQIiJDaSAmBpPi6FqktFr7yCcZD&after=MjU3NTI0MzEwOTg2NDk1"
                    }, 
                    "data": [
                        {
                            "category": "Movie", 
                            "created_time": "2014-05-06T06:46:41+0000", 
                            "name": "The Lucky One", 
                            "id": "205619826135296"
                        }, 
                        {
                            "category": "Education", 
                            "created_time": "2013-12-31T18:06:54+0000", 
                            "name": "GE1212", 
                            "category_list": [
                                {
                                    "id": "176831012360626", 
                                    "name": "Professional Services"
                                }
                            ], 
                            "id": "612439238778293"
                        }, 
                        {
                            "category": "Product/service", 
                            "created_time": "2013-11-05T08:02:30+0000", 
                            "name": "GoToWebinar", 
                            "id": "86882893589"
                        }, 
                        {
                            "category": "Organization", 
                            "created_time": "2013-09-19T11:50:51+0000", 
                            "name": "GBSM", 
                            "id": "439374102849515"
                        }, 
                        {
                            "category": "Product/service", 
                            "created_time": "2013-06-28T07:15:24+0000", 
                            "name": "Nike", 
                            "category_list": [
                                {
                                    "id": "181069735261656", 
                                    "name": "Sportswear"
                                }
                            ], 
                            "id": "15087023444"
                        }, 
                        {
                            "category": "Company", 
                            "created_time": "2013-05-26T08:24:29+0000", 
                            "name": "SavvyRookies", 
                            "id": "388592074498446"
                        }, 
                        {
                            "category": "Website", 
                            "created_time": "2013-03-28T08:38:53+0000", 
                            "name": "Seeking Alpha", 
                            "id": "224867310939090"
                        }, 
                        {
                            "category": "Education", 
                            "created_time": "2012-08-27T01:03:43+0000", 
                            "name": "Social Media and Business Analytics Collaborative", 
                            "id": "346181572125998"
                        }, 
                        {
                            "category": "Local business", 
                            "created_time": "2012-07-24T01:03:41+0000", 
                            "name": "City University of Hong Kong 香港城市大學", 
                            "category_list": [
                                {
                                    "id": "108051929285833", 
                                    "name": "College & University"
                                }, 
                                {
                                    "id": "365182493518892", 
                                    "name": "School"
                                }
                            ], 
                            "id": "184466871585843"
                        }, 
                        {
                            "category": "Organization", 
                            "created_time": "2012-01-23T20:41:24+0000", 
                            "name": "Statistical Challenges in Electronic Commerce Research", 
                            "id": "257524310986495"
                        }
                    ]
                }
            }, 
            {
                "id": "684058783", 
                "likes": {
                    "paging": {
                        "cursors": {
                            "after": "MzEwMDk2NDIzNzEy", 
                            "before": "NTg0MzAzNzExNjM1ODQ3"
                        }, 
                        "next": "https://graph.facebook.com/v1.0/684058783/likes?limit=10&access_token=CAACEdEose0cBAKE7yeZAQZBQz8wzZAmXva7GO398ZCDt3EWZBjxbyeGMBZAZAm8mZC0PrbJlMlVzIMIWO2JvnmDmHXkkVvuKE2kZC4k5ZCIsKx24CbJwsKyMLmQZCoz94j2uWH8XIb5PzZB0phdCZATaMtpLzk2Sspu6zQgI1kWpanaYK53ZA6V3zVJ6fytGOW6RwmD4MgPaUpSTZBQIiJDaSAmBpPi6FqktFr7yCcZD&after=MzEwMDk2NDIzNzEy"
                    }, 
                    "data": [
                        {
                            "category": "Community", 
                            "created_time": "2013-10-22T03:17:35+0000", 
                            "name": "The Civil Rights Club", 
                            "id": "584303711635847"
                        }, 
                        {
                            "category": "Energy/utility", 
                            "created_time": "2013-06-10T19:27:33+0000", 
                            "name": "Erasmus Centre for Future Energy Business", 
                            "id": "528915300505703"
                        }, 
                        {
                            "category": "Computers/technology", 
                            "created_time": "2012-12-02T05:58:30+0000", 
                            "name": "Social TV Lab", 
                            "id": "419682451427410"
                        }, 
                        {
                            "category": "Education", 
                            "created_time": "2012-09-23T03:37:55+0000", 
                            "name": "Yanlai Dance Academy", 
                            "category_list": [
                                {
                                    "id": "151676848220295", 
                                    "name": "Education"
                                }
                            ], 
                            "id": "365202183559044"
                        }, 
                        {
                            "category": "Organization", 
                            "created_time": "2012-08-30T01:25:36+0000", 
                            "name": "NET Institute", 
                            "id": "318600574848684"
                        }, 
                        {
                            "category": "Education", 
                            "created_time": "2012-08-26T20:57:09+0000", 
                            "name": "Social Media and Business Analytics Collaborative", 
                            "id": "346181572125998"
                        }, 
                        {
                            "category": "Community", 
                            "created_time": "2012-01-10T21:32:15+0000", 
                            "name": "Digital Intelligence", 
                            "id": "134465199956755"
                        }, 
                        {
                            "category": "Education", 
                            "created_time": "2012-01-10T20:37:22+0000", 
                            "name": "MIS Research Center - Social Media Panel Discussion", 
                            "category_list": [
                                {
                                    "id": "151676848220295", 
                                    "name": "Education"
                                }
                            ], 
                            "id": "133848820052935"
                        }, 
                        {
                            "category": "Education", 
                            "created_time": "2010-04-04T02:58:46+0000", 
                            "name": "University of Minnesota", 
                            "category_list": [
                                {
                                    "id": "151676848220295", 
                                    "name": "Education"
                                }
                            ], 
                            "id": "93415311269"
                        }, 
                        {
                            "category": "Non-profit organization", 
                            "created_time": "2010-03-22T13:03:40+0000", 
                            "name": "CSCW 2011", 
                            "id": "310096423712"
                        }
                    ]
                }
            }, 
            {
                "id": "882770130", 
                "likes": {
                    "paging": {
                        "cursors": {
                            "after": "MzU0MzY5MDg0NTg1OTIx", 
                            "before": "NzY5MjI0NjQwMg=="
                        }, 
                        "next": "https://graph.facebook.com/v1.0/882770130/likes?limit=10&access_token=CAACEdEose0cBAKE7yeZAQZBQz8wzZAmXva7GO398ZCDt3EWZBjxbyeGMBZAZAm8mZC0PrbJlMlVzIMIWO2JvnmDmHXkkVvuKE2kZC4k5ZCIsKx24CbJwsKyMLmQZCoz94j2uWH8XIb5PzZB0phdCZATaMtpLzk2Sspu6zQgI1kWpanaYK53ZA6V3zVJ6fytGOW6RwmD4MgPaUpSTZBQIiJDaSAmBpPi6FqktFr7yCcZD&after=MzU0MzY5MDg0NTg1OTIx"
                    }, 
                    "data": [
                        {
                            "category": "School sports team", 
                            "created_time": "2014-05-07T05:48:48+0000", 
                            "name": "Wisconsin Badgers", 
                            "category_list": [
                                {
                                    "id": "1804", 
                                    "name": "School Sports Team"
                                }
                            ], 
                            "id": "7692246402"
                        }, 
                        {
                            "category": "Travel/leisure", 
                            "created_time": "2014-01-16T23:03:21+0000", 
                            "name": "American Airlines", 
                            "category_list": [
                                {
                                    "id": "110192549061839", 
                                    "name": "Airline"
                                }, 
                                {
                                    "id": "124861974254366", 
                                    "name": "Tours & Sightseeing"
                                }
                            ], 
                            "id": "7003656077"
                        }, 
                        {
                            "category": "Community", 
                            "created_time": "2013-11-06T12:57:07+0000", 
                            "name": "Structural Modeling Applications for Research in Technology - SMART", 
                            "id": "538718909531058"
                        }, 
                        {
                            "category": "Non-profit organization", 
                            "created_time": "2013-09-13T23:53:16+0000", 
                            "name": "National Communication Association", 
                            "category_list": [
                                {
                                    "id": "2603", 
                                    "name": "Non-Profit Organization"
                                }
                            ], 
                            "id": "26257841865"
                        }, 
                        {
                            "category": "Society/culture website", 
                            "created_time": "2013-05-27T19:02:33+0000", 
                            "name": "Cute Calendar", 
                            "id": "101624633212296"
                        }, 
                        {
                            "category": "Musician/band", 
                            "created_time": "2013-05-11T02:19:22+0000", 
                            "name": "Doctor Decade", 
                            "id": "162943600455797"
                        }, 
                        {
                            "category": "Non-profit organization", 
                            "created_time": "2013-04-09T06:50:11+0000", 
                            "name": "AMCIS 2013", 
                            "id": "162821723786742"
                        }, 
                        {
                            "category": "Education", 
                            "created_time": "2013-03-23T02:27:20+0000", 
                            "name": "Gulf Coast Food Project", 
                            "category_list": [
                                {
                                    "id": "151676848220295", 
                                    "name": "Education"
                                }
                            ], 
                            "id": "427640483971900"
                        }, 
                        {
                            "category": "Non-profit organization", 
                            "created_time": "2012-08-27T19:33:15+0000", 
                            "name": "The Global Text Project", 
                            "id": "173181616105"
                        }, 
                        {
                            "category": "School", 
                            "created_time": "2012-08-22T04:58:42+0000", 
                            "name": "» Fox School faculty member Paul A. Pavlou ranked No. 1 for research in the world | Fox School of Business | Temple University", 
                            "id": "354369084585921"
                        }
                    ]
                }
            }, 
            {
                "id": "1845182381", 
                "likes": {
                    "paging": {
                        "cursors": {
                            "after": "MTYyOTQzNjAwNDU1Nzk3", 
                            "before": "MjI5MzQ2ODQ2Nzc="
                        }, 
                        "next": "https://graph.facebook.com/v1.0/1845182381/likes?limit=10&access_token=CAACEdEose0cBAKE7yeZAQZBQz8wzZAmXva7GO398ZCDt3EWZBjxbyeGMBZAZAm8mZC0PrbJlMlVzIMIWO2JvnmDmHXkkVvuKE2kZC4k5ZCIsKx24CbJwsKyMLmQZCoz94j2uWH8XIb5PzZB0phdCZATaMtpLzk2Sspu6zQgI1kWpanaYK53ZA6V3zVJ6fytGOW6RwmD4MgPaUpSTZBQIiJDaSAmBpPi6FqktFr7yCcZD&after=MTYyOTQzNjAwNDU1Nzk3"
                    }, 
                    "data": [
                        {
                            "category": "Tv show", 
                            "created_time": "2014-09-02T21:20:47+0000", 
                            "name": "The Big Bang Theory", 
                            "id": "22934684677"
                        }, 
                        {
                            "category": "Health/beauty", 
                            "created_time": "2013-10-19T16:12:17+0000", 
                            "name": "Bath & Body Works", 
                            "category_list": [
                                {
                                    "id": "200600219953504", 
                                    "name": "Shopping & Retail"
                                }, 
                                {
                                    "id": "139225689474222", 
                                    "name": "Spa, Beauty & Personal Care"
                                }
                            ], 
                            "id": "135748000675"
                        }, 
                        {
                            "category": "Local business", 
                            "created_time": "2013-07-28T18:37:15+0000", 
                            "name": "Walmart Lansing - N Marketplace Blvd", 
                            "category_list": [
                                {
                                    "id": "200600219953504", 
                                    "name": "Shopping & Retail"
                                }
                            ], 
                            "id": "224675554251988"
                        }, 
                        {
                            "category": "Local business", 
                            "created_time": "2013-07-28T18:35:46+0000", 
                            "name": "Walmart Okemos", 
                            "category_list": [
                                {
                                    "id": "200600219953504", 
                                    "name": "Shopping & Retail"
                                }
                            ], 
                            "id": "250264631671960"
                        }, 
                        {
                            "category": "Food/beverages", 
                            "created_time": "2013-06-10T21:04:10+0000", 
                            "name": "Yucatan Guacamole and Dips", 
                            "id": "122358487780784"
                        }, 
                        {
                            "category": "Company", 
                            "created_time": "2013-06-03T04:32:47+0000", 
                            "name": "Cabo Fresh", 
                            "id": "154254083846"
                        }, 
                        {
                            "category": "Local business", 
                            "created_time": "2013-04-19T04:31:03+0000", 
                            "name": "Starbucks I-10 and Gause Blvd", 
                            "category_list": [
                                {
                                    "id": "273819889375819", 
                                    "name": "Restaurant"
                                }, 
                                {
                                    "id": "200600219953504", 
                                    "name": "Shopping & Retail"
                                }, 
                                {
                                    "id": "128673187201735", 
                                    "name": "Coffee Shop"
                                }
                            ], 
                            "id": "111245835634960"
                        }, 
                        {
                            "category": "Non-profit organization", 
                            "created_time": "2013-03-25T04:08:46+0000", 
                            "name": "We Sing For Food", 
                            "id": "430580323680570"
                        }, 
                        {
                            "category": "Movie", 
                            "created_time": "2012-12-15T02:43:09+0000", 
                            "name": "Pursuit of Happyness", 
                            "id": "400024903412192"
                        }, 
                        {
                            "category": "Musician/band", 
                            "created_time": "2012-11-29T19:10:55+0000", 
                            "name": "Doctor Decade", 
                            "id": "162943600455797"
                        }
                    ]
                }
            }
        ]
    }, 
    "id": "10203897415252203", 
    "name": "De Liu"
}