{
    "paging": {
        "next": "https://graph.facebook.com/v1.0/10203897415252203/friends?access_token=CAACEdEose0cBAIHnvRPLAchQiPTZC50dhYsDkOJESVHAkenZBxGbWrwyZAKZAMtuobTZALss9h4CDP0wQnj6XpuYZBkkJfstA6S3DQ3SRbmy5zVBrFemXkL9EfcSwZBst6PwbTiZCRBboildhM5qFJOnlZBj3ZCylpu6CJnpg6Qpr8y1Ea60pSHn76ng0KCzMKZB8GdS1y2OAZBrs3ZAHpAV7LqcZARZAmloAHovbEZD&limit=5000&offset=5000&__after_id=enc_Aew2OgyFYIJwVQ93MKsfN5HPmHHM6VCsmrXxgP6oYdrBW22UzGtFVI7B8EH1CTBVe1M"
    }, 
    "data": [
        {
            "name": "Tuan Phan", 
            "id": "19147"
        }, 
        {
            "name": "Pete Wilson", 
            "id": "12929290"
        }, 
        {
            "name": "Chris Westland", 
            "id": "508623312"
        }, 
        {
            "name": "Hailiang Chen", 
            "id": "554227262"
        }, 
        {
            "name": "Yuqing Ren", 
            "id": "684058783"
        }, 
        {
            "name": "Xiao Ma", 
            "id": "882770130"
        }, 
        {
            "name": "Kangkang Qi", 
            "id": "1845182381"
        }
    ]
}